<?xml version="1.0" encoding="utf-8"?>
<!-- Generator: Adobe Illustrator 16.0.0, SVG Export Plug-In . SVG Version: 6.00 Build 0)  -->
<!DOCTYPE svg PUBLIC "-//W3C//DTD SVG 1.1//EN" "http://www.w3.org/Graphics/SVG/1.1/DTD/svg11.dtd">
<svg version="1.1" id="Layer_1" xmlns="http://www.w3.org/2000/svg" xmlns:xlink="http://www.w3.org/1999/xlink" x="0px" y="0px"
	 width="446.977px" height="235.488px" viewBox="0 0 446.977 235.488" enable-background="new 0 0 446.977 235.488"
	 xml:space="preserve">
<g>
	<g>
		<path fill="#E93267" d="M119.014,131.59l1.261,6.684l0.679-0.128l5.327-1.006l0.678-0.128l-3.162-16.755
			c-1.423-7.537-8.711-12.512-16.248-11.09c-7.499,1.416-12.48,8.674-11.104,16.178l0.131,0.713l6.684-1.261l-0.125-0.679
			c-0.703-3.836,1.843-7.544,5.675-8.268c3.853-0.727,7.577,1.816,8.304,5.668l0.64,3.388l-5.105,3.744l1.262,6.684L119.014,131.59z
			"/>
		<path fill="#E93267" d="M120.794,141.007l0.125,0.679c0.703,3.835-1.842,7.544-5.674,8.267c-3.852,0.727-7.578-1.814-8.305-5.667
			l-0.637-3.375l5.105-3.743l-1.262-6.684l-5.105,3.743l-1.262-6.683l-6.683,1.261l3.159,16.742
			c1.423,7.537,8.712,12.512,16.249,11.089c7.499-1.415,12.479-8.672,11.103-16.178l-0.131-0.713L120.794,141.007z"/>
		<path fill="#E93267" d="M78.974,121.512l-7.715,1.456l-1.186-6.277l22.1-4.17l1.186,6.276l-7.716,1.456l7.602,40.275l-6.669,1.26
			L78.974,121.512z"/>
		<path fill="#E93267" d="M127.16,105.917l6.408-1.209l13.217,23.033l0.131-0.025l3.848-26.254l6.474-1.222l8.786,46.553
			l-6.669,1.259l-5.343-28.311l-0.131,0.024l-2.828,21.253l-3.335,0.63l-10.314-18.773l-0.131,0.024l5.344,28.312l-6.669,1.259
			L127.16,105.917z"/>
		<path fill="#E93267" d="M163.513,99.056l6.408-1.209l13.217,23.033l0.131-0.025l3.848-26.254l6.473-1.221l8.787,46.553
			l-6.669,1.258l-5.344-28.311l-0.131,0.024l-2.827,21.253l-3.335,0.63l-10.314-18.772l-0.13,0.023l5.343,28.312l-6.669,1.259
			L163.513,99.056z"/>
		<path fill="#E93267" d="M211.15,117.895L196.924,92.75l7.062-1.333l8.854,17.492l0.131-0.025l1.869-19.516l7.062-1.332
			l-4.082,28.6l3.715,19.681l-6.669,1.259L211.15,117.895z"/>
		<g>
			<path fill="#E93267" d="M225.235,87.407l19.876-3.752l1.186,6.277l-13.207,2.492l2.665,14.123l11.507-2.172l1.186,6.276
				l-11.508,2.172l3.751,19.876l-6.669,1.26L225.235,87.407z"/>
			<path fill="#E93267" d="M249.426,82.841l19.876-3.752l1.185,6.277l-13.206,2.493l2.578,13.665l11.508-2.172l1.185,6.276
				l-11.507,2.172l2.578,13.665l13.207-2.492l1.259,6.669l-19.876,3.751L249.426,82.841z"/>
			<path fill="#E93267" d="M273.618,78.274l10.724-2.023c7.91-1.493,12.645,2.422,14.348,11.443
				c1.012,5.362,0.248,9.568-3.558,12.725l11.203,19.893l-7.062,1.332l-9.963-18.703l-3.988,0.752l3.752,19.877l-6.67,1.259
				L273.618,78.274z M284.211,97.808l3.792-0.715c4.643-0.877,4.867-3.627,3.991-8.27c-0.888-4.707-2.153-7.109-7.058-6.184
				l-3.465,0.654L284.211,97.808z"/>
			<path fill="#E93267" d="M301.47,73.019l6.67-1.26l7.527,39.885l13.207-2.492l1.259,6.668l-19.876,3.752L301.47,73.019z"/>
			<path fill="#E93267" d="M325.859,68.415l6.669-1.258l8.786,46.553l-6.669,1.258L325.859,68.415z"/>
			<path fill="#E93267" d="M338.739,65.984l6.407-1.209l15.363,26.149l0.131-0.025l-5.294-28.049l6.669-1.26l8.786,46.553
				l-6.277,1.186l-15.48-26.059l-0.131,0.024l5.281,27.983l-6.669,1.26L338.739,65.984z"/>
			<path fill="#E93267" d="M368.226,60.419l6.669-1.258l8.786,46.553l-6.669,1.258L368.226,60.419z"/>
		</g>
	</g>
	<g>
		<path fill="#E93267" d="M372.416,22.979L59.195,82.095l-28.351,5.35l6.005,31.821l10.134,53.69l6.006,31.82l28.351-5.35
			L394.56,140.31l28.352-5.35l-6.006-31.821l-10.134-53.69l-6.005-31.82L372.416,22.979z M420.457,133.068L54.584,202.122
			L33.298,89.335L399.17,20.282L420.457,133.068z"/>
	</g>
</g>
</svg>
